…
To see how life expectancy over time, let's find the mean life expectancy of each continent for each year we have data for.

``` r
lifeExpOverTime <- gapminder %>%
  select(year, continent, lifeExp) %>%
  group_by(continent, year) %>%
  mutate(meanLifeExp = mean(lifeExp), sdLifeExp = sd(lifeExp)) %>%
  select(year, continent, meanLifeExp, sdLifeExp)

lifeExpOverTime
```

    ## # A tibble: 1,704 x 4
    ## # Groups:   continent, year [60]
    ##     year continent meanLifeExp sdLifeExp
    ##    <int> <fct>           <dbl>     <dbl>
    ##  1  1952 Asia             46.3      9.29
    ##  2  1957 Asia             49.3      9.64
    ##  3  1962 Asia             51.6      9.82
    ##  4  1967 Asia             54.7      9.65
    ##  5  1972 Asia             57.3      9.72
    ##  6  1977 Asia             59.6     10.0 
    ##  7  1982 Asia             62.6      8.54
    ##  8  1987 Asia             64.9      8.20
    ##  9  1992 Asia             66.5      8.08
    ## 10  1997 Asia             68.0      8.09
    ## # ... with 1,694 more rows
…
